mc20_13TeV.346645.PowhegPythia8EvtGen_NNPDF30_AZNLO_ZH125J_Zincl_MINLO_shw.deriv.DAOD_PHYS.e7735_s3681_r13144_p6266
mc20_13TeV.346645.PowhegPythia8EvtGen_NNPDF30_AZNLO_ZH125J_Zincl_MINLO_shw.deriv.DAOD_PHYS.e7735_s3681_r13145_p6266
mc20_13TeV.346645.PowhegPythia8EvtGen_NNPDF30_AZNLO_ZH125J_Zincl_MINLO_shw.deriv.DAOD_PHYS.e7735_s3681_r13167_p6266

mc20_13TeV.346646.PowhegPythia8EvtGen_NNPDF30_AZNLO_WpH125J_Wincl_MINLO_shw.deriv.DAOD_PHYS.e7735_s3681_r13144_p6266
mc20_13TeV.346646.PowhegPythia8EvtGen_NNPDF30_AZNLO_WpH125J_Wincl_MINLO_shw.deriv.DAOD_PHYS.e7735_s3681_r13145_p6266
mc20_13TeV.346646.PowhegPythia8EvtGen_NNPDF30_AZNLO_WpH125J_Wincl_MINLO_shw.deriv.DAOD_PHYS.e7735_s3681_r13167_p6266

mc20_13TeV.346647.PowhegPythia8EvtGen_NNPDF30_AZNLO_WmH125J_Wincl_MINLO_shw.deriv.DAOD_PHYSLITE.e7735_s3681_r13144_p6266
mc20_13TeV.346647.PowhegPythia8EvtGen_NNPDF30_AZNLO_WmH125J_Wincl_MINLO_shw.deriv.DAOD_PHYSLITE.e7735_s3681_r13145_p6266
mc20_13TeV.346647.PowhegPythia8EvtGen_NNPDF30_AZNLO_WmH125J_Wincl_MINLO_shw.deriv.DAOD_PHYSLITE.e7735_s3681_r13167_p6266
