mc20_13TeV.345315.PowhegPythia8EvtGen_A14NNPDF23LO_bbHyy.deriv.DAOD_PHYSLITE.e6050_s3681_r13167_p6266
mc20_13TeV.345315.PowhegPythia8EvtGen_A14NNPDF23LO_bbHyy.deriv.DAOD_PHYSLITE.e6050_s3681_r13144_p6266
mc20_13TeV.345315.PowhegPythia8EvtGen_A14NNPDF23LO_bbHyy.deriv.DAOD_PHYSLITE.e6050_s3681_r13145_p6266
