mc23_13p6TeV.513108.MGPy8EG_Zmumu_FxFx3jHT2bias_SW_BFilter.deriv.DAOD_PHYSLITE.e8514_s4162_r14622_p6026
mc23_13p6TeV.513108.MGPy8EG_Zmumu_FxFx3jHT2bias_SW_BFilter.deriv.DAOD_PHYSLITE.e8514_s4159_r14799_p5855
mc23_13p6TeV.513109.MGPy8EG_Zmumu_FxFx3jHT2bias_SW_CFilterBVeto.deriv.DAOD_PHYSLITE.e8514_s4162_r14622_p6026
mc23_13p6TeV.513109.MGPy8EG_Zmumu_FxFx3jHT2bias_SW_CFilterBVeto.deriv.DAOD_PHYSLITE.e8514_s4159_r14799_p5855
mc23_13p6TeV.513110.MGPy8EG_Zmumu_FxFx3jHT2bias_SW_CVetoBVeto.deriv.DAOD_PHYSLITE.e8514_s4162_r14622_p6026
mc23_13p6TeV.513110.MGPy8EG_Zmumu_FxFx3jHT2bias_SW_CVetoBVeto.deriv.DAOD_PHYSLITE.e8514_s4159_r14799_p5855
