mc20_13TeV.701040.Sh_2214_llll.deriv.DAOD_PHYS.e8547_s3797_r13144_p6026
mc20_13TeV.701040.Sh_2214_llll.deriv.DAOD_PHYS.e8547_s3797_r13145_p6026
mc20_13TeV.701040.Sh_2214_llll.deriv.DAOD_PHYS.e8547_s3797_r13167_p6026

mc20_13TeV.701045.Sh_2214_lllv.deriv.DAOD_PHYS.e8547_s3797_r13144_p6026
mc20_13TeV.701045.Sh_2214_lllv.deriv.DAOD_PHYS.e8547_s3797_r13145_p6026
mc20_13TeV.701045.Sh_2214_lllv.deriv.DAOD_PHYS.e8547_s3797_r13167_p6026

mc20_13TeV.701050.Sh_2214_llvv_os.deriv.DAOD_PHYS.e8547_s3797_r13144_p6026
mc20_13TeV.701050.Sh_2214_llvv_os.deriv.DAOD_PHYS.e8547_s3797_r13145_p6026
mc20_13TeV.701050.Sh_2214_llvv_os.deriv.DAOD_PHYS.e8547_s3797_r13167_p6026

mc20_13TeV.701055.Sh_2214_llvv_ss.deriv.DAOD_PHYS.e8547_s3797_r13144_p6026
mc20_13TeV.701055.Sh_2214_llvv_ss.deriv.DAOD_PHYS.e8547_s3797_r13145_p6026
mc20_13TeV.701055.Sh_2214_llvv_ss.deriv.DAOD_PHYS.e8547_s3797_r13167_p6026

mc20_13TeV.701060.Sh_2214_lvvv.deriv.DAOD_PHYS.e8547_s3797_r13144_p6026
mc20_13TeV.701060.Sh_2214_lvvv.deriv.DAOD_PHYS.e8547_s3797_r13145_p6026
mc20_13TeV.701060.Sh_2214_lvvv.deriv.DAOD_PHYS.e8547_s3797_r13167_p6026

mc20_13TeV.701065.Sh_2214_vvvv.deriv.DAOD_PHYS.e8547_s3797_r13144_p6026
mc20_13TeV.701065.Sh_2214_vvvv.deriv.DAOD_PHYS.e8547_s3797_r13145_p6026
mc20_13TeV.701065.Sh_2214_vvvv.deriv.DAOD_PHYS.e8547_s3797_r13167_p6026
