#mc20_13TeV.700398.Sh_2211_mumugamma.deriv.DAOD_PHYS.e8338_s3681_r13144_p6266
#mc20_13TeV.700398.Sh_2211_mumugamma.deriv.DAOD_PHYS.e8338_s3681_r13145_p6266
mc20_13TeV.700398.Sh_2211_mumugamma.deriv.DAOD_PHYS.e8338_s3681_r13167_p6266

#mc20_13TeV.700399.Sh_2211_eegamma.deriv.DAOD_PHYS.e8338_s3681_r13144_p6266
#mc20_13TeV.700399.Sh_2211_eegamma.deriv.DAOD_PHYS.e8338_s3681_r13145_p6266
mc20_13TeV.700399.Sh_2211_eegamma.deriv.DAOD_PHYS.e8338_s3681_r13167_p6266

#mc20_13TeV.700400.Sh_2211_tautaugamma.deriv.DAOD_PHYS.e8338_s3681_r13144_p6266
#mc20_13TeV.700400.Sh_2211_tautaugamma.deriv.DAOD_PHYS.e8338_s3681_r13145_p6266
mc20_13TeV.700400.Sh_2211_tautaugamma.deriv.DAOD_PHYS.e8338_s3681_r13167_p6266

#mc20_13TeV.700402.Sh_2211_munugamma.deriv.DAOD_PHYS.e8338_s3681_r13144_p6266
#mc20_13TeV.700402.Sh_2211_munugamma.deriv.DAOD_PHYS.e8338_s3681_r13145_p6266
mc20_13TeV.700402.Sh_2211_munugamma.deriv.DAOD_PHYS.e8338_s3681_r13167_p6266

#mc20_13TeV.700403.Sh_2211_enugamma.deriv.DAOD_PHYS.e8338_s3681_r13144_p6266
#mc20_13TeV.700403.Sh_2211_enugamma.deriv.DAOD_PHYS.e8338_s3681_r13145_p6266
mc20_13TeV.700403.Sh_2211_enugamma.deriv.DAOD_PHYS.e8338_s3681_r13167_p6266

#mc20_13TeV.700404.Sh_2211_taunugamma.deriv.DAOD_PHYS.e8338_s3681_r13144_p6266
#mc20_13TeV.700404.Sh_2211_taunugamma.deriv.DAOD_PHYS.e8338_s3681_r13145_p6266
mc20_13TeV.700404.Sh_2211_taunugamma.deriv.DAOD_PHYS.e8338_s3681_r13167_p6266
