mc23_13p6TeV.525951.MGPy8EG_PDF30NLO_X2000tohh_WWbb_allhad.deriv.DAOD_PHYS.e8551_s4162_r14622_p5855
mc23_13p6TeV.525952.MGPy8EG_PDF30NLO_X4000tohh_WWbb_allhad.deriv.DAOD_PHYS.e8551_s4162_r14622_p5855
mc23_13p6TeV.525953.MGPy8EG_PDF30NLO_X6000tohh_WWbb_allhad.deriv.DAOD_PHYS.e8551_s4162_r14622_p5855
mc23_13p6TeV.802061.Py8EG_A14NNPDF23LO_XHS_X2000_S300_bbWW_allhad.deriv.DAOD_PHYS.e8551_s4162_r14622_p5855
mc23_13p6TeV.802062.Py8EG_A14NNPDF23LO_XHS_X2000_S1000_bbWW_allhad.deriv.DAOD_PHYS.e8551_s4162_r14622_p5855
mc23_13p6TeV.802063.Py8EG_A14NNPDF23LO_XHS_X3000_S300_bbWW_allhad.deriv.DAOD_PHYS.e8551_s4162_r14622_p5855
mc23_13p6TeV.802064.Py8EG_A14NNPDF23LO_XHS_X3000_S1500_bbWW_allhad.deriv.DAOD_PHYS.e8551_s4162_r14622_p5855
mc23_13p6TeV.802065.Py8EG_A14NNPDF23LO_XHS_X4000_S300_bbWW_allhad.deriv.DAOD_PHYS.e8551_s4162_r14622_p5855
mc23_13p6TeV.802066.Py8EG_A14NNPDF23LO_XHS_X4000_S2000_bbWW_allhad.deriv.DAOD_PHYS.e8551_s4162_r14622_p5855
